{
  "type": "service_account",
  "project_id": "laundry-48a6a",
  "private_key_id": "68cf4ec157b27ed33774fea912814947fa96efb6",
  "private_key": "-----BEGIN PRIVATE KEY-----\nMIIEvQIBADANBgkqhkiG9w0BAQEFAASCBKcwggSjAgEAAoIBAQDSdjTqsTIn/UxH\n4kLXVjUdU0jP46lzr/oQRv4VYAGK1nr3L67TDrldSFoabuR/pT44B73RLOYRLccW\nC7bPQloKe3/JAJPxCBtB7B3+FOxuA3fW5KOQnNp4HuQkLGs2hG+MS2wg/eS5y8fl\nSpFws58Cac4VT7xtF6NrmAm4pA0iHvpgzdLq7HLwQTjMNzbs3+Rg2GngQERbJzvE\nATRf89dDP5Z/lrhaGskp234qE56AdwxDeghsnGlLBuZW/Lm+M0RlbxLB4wo9tMeh\nt9gPzDkqB4pn7fqHCgAHcvsDNAY4BFpJU7LaeQkEBC2AIwo4lFfZhVRdaRaJ6k9K\n3BWsrqipAgMBAAECggEACTfZOIBbYIoFKc7cu57Qg8DOmyBvHxyRmN3rKheC6chc\nKXCCuUbXUqElJSw/QOIFeCHKrBtJ1m3JXwtTTf+rfvMK1Ux7rl57Byem5qaW9nib\naqOoEGD2ZrV/q5/wcDpbwmrZSRalyoeE8WOTPDr513q35pIQAD09UKyfnGE/HAPn\n/zuLjTfsOSPnYcOmriK9f1rLjIRacnWfzv5hkLsKer75/0GIQZjs9Sz3Bmv8Nj7B\nm0sv7U5WImEjsVKtJ3GPjZqj98VQRbr5w4kQjq72EyYet0c9WeFozLEwakLqZcyI\nUj6/MHKxaML4VsJpwBHQec+OoURBWgux8qBxk60vuwKBgQDug1x67q/q9n8P1tVU\n14P3R+bkYXSBHVJ84VojY+qy+hA7OtHSLiCiKQw8AFw84f7xO0LVHE3FAXYG2KPZ\nGwciEGXX1bFvkVJVidg3WL/vz4Q5oPKGU0+ucVp4FybRaeIkUlJDFNbhtpnOtSM0\n0kAkzMCChJLLzeS/dpJlOtq0EwKBgQDh5FnGJcDiT/y06paYZIQixvVGl+jiVqmD\nNhxtDlp1PQ9c2mpr+rtc0OzZbXMwXpKEWlO4JwlaEVstqnW68mR0GS1MXad0rW7A\n4rDuo49RajEZzhOFlQDYsIoe/zJK0HVoavAB1iSNSYv7vBVTarzaCLVDNuQPZp/w\nNRsSq0hv0wKBgQDRCqKgP9hBB5+fYzwAKw9HSGZuHZf9nZRxTRUyVV0bVh2pu8iv\n/KuvVGibofk1hyFpjfXqT+89TiWCpJceLhkXWuXXwDvOO8C8pZ6yC3/Vj7wkwhIt\ndpEso76V6DymZ7XC/b+JeZdHpkGxsIJVxjxfxHCpM8ZxB1iIEkUGogmSrwKBgFsX\ndoxNFScuEj3yi6AQiKhtiuNYxvTe9aSP4Y6oxxmX8eYDvf6lMYEQTzKuzFCpEnSE\n6FXOiBrl/NrBbpBgxtl6faXZ7nlCpvLpd2gEVPsD06EQVRb9K0Y2irxNNL6uqWne\nFcLn0/2Vtvlgs0jcNiPGdzIPpJABVmXLRIuWvrM5AoGAB4/BNjeIH/SjnuD8M1cF\n3HCRPn4Eill2KdwHnAmJuRvvEE21qaP7gyFDdF5Lfr6XOI3eJp6PwPyFjQ18zYXv\nguY134Dks0wqr7GaXJ7pGWfQ4jmflzAlgRvjhzxjjbeEBANsC4XPOVoMu3392em8\ny7v6KkCyvas0pXeoe6stneE=\n-----END PRIVATE KEY-----\n",
  "client_email": "firebase-adminsdk-wp0z0@laundry-48a6a.iam.gserviceaccount.com",
  "client_id": "109851107692061897408",
  "auth_uri": "https://accounts.google.com/o/oauth2/auth",
  "token_uri": "https://oauth2.googleapis.com/token",
  "auth_provider_x509_cert_url": "https://www.googleapis.com/oauth2/v1/certs",
  "client_x509_cert_url": "https://www.googleapis.com/robot/v1/metadata/x509/firebase-adminsdk-wp0z0%40laundry-48a6a.iam.gserviceaccount.com"
}
